,Sentence,ask_location,book_hotel,greetings
0,want to book a hotel,0,1,0
1,i want to book a room,0,1,0
2,make a reservation,0,1,0
3,where are your place,1,0,0
4,where are you,1,0,0
5,what are your address,1,0,0
6,hello,0,0,1
7,hi,0,0,1
8,hey there,0,0,1
9,i want to make a reservation,0,1,0
